[ { "title": "Welcome to My Tech Blog", "url": "/posts/welcome/", "categories": "getting-started", "tags": "jekyll, chirpy, blog", "date": "2026-06-07 05:43:00 +0530", "content": "Welcome to My Tech Blog! 🚀 I’m excited to share my thoughts and experiences with the tech community using the beautiful Jekyll Theme Chirpy. This blog will feature my insights on: Topics I Cover Software Architecture - Designing scalable systems Cloud Technologies - AWS, GCP, Docker, Kubernetes DevOps - CI/CD, Infrastructure as Code Open Source - Contributions and best practices Learning &amp; Growth - Tech tips and career insights What’s Next? Feel free to explore: 📄 About - Learn more about me 💼 Experience - My professional background 📝 Posts - Read my latest articles 🔗 Links - Connect on GitHub or Twitter Happy reading! Don’t forget to subscribe to the RSS feed for updates. 📰" }, { "title": "Microservices Architecture - When to Use It", "url": "/posts/microservices-architecture/", "categories": "system-design", "tags": "microservices, architecture, scalability", "date": "2026-06-05 10:30:00 +0530", "content": "Microservices Architecture - When to Use It Microservices have become increasingly popular, but they’re not always the right choice. Let’s explore when and how to implement them effectively. What Are Microservices? Microservices architecture is an approach to developing a single application as a suite of small services, each running in its own process and communicating via lightweight mechanisms. Advantages ✅ Independent Deployment - Deploy services without affecting others ✅ Technology Flexibility - Use different languages/frameworks per service ✅ Scalability - Scale individual components based on demand ✅ Team Autonomy - Small teams can own specific services Challenges ⚠️ Operational Complexity - Requires robust DevOps practices ⚠️ Network Latency - Inter-service communication overhead ⚠️ Data Consistency - Distributed transactions are tricky ⚠️ Monitoring - Multiple services to monitor and debug When to Use Microservices ✓ Large, complex applications ✓ Multiple development teams ✓ Need for independent scaling ✓ Diverse technology requirements When NOT to Use ✗ Small applications or MVPs ✗ Tight coupling requirements ✗ Single team environment ✗ Real-time synchronous operations Best Practices Start with Monolith - Don’t microservice too early Clear Boundaries - Define service responsibilities clearly API Contracts - Maintain stable contracts between services Monitoring &amp; Logging - Implement comprehensive observability Automation - Invest in CI/CD pipelines Remember: Microservices are a solution to organizational problems, not just technical ones." }, { "title": "Docker Best Practices for Production", "url": "/posts/docker-best-practices/", "categories": "devops", "tags": "docker, containerization, production, best-practices", "date": "2026-06-03 14:20:00 +0530", "content": "Docker Best Practices for Production Docker is powerful, but using it incorrectly can lead to security vulnerabilities, performance issues, and operational nightmares. Here are battle-tested best practices. 1. Use Specific Base Image Tags Bad: FROM python:latest FROM ubuntu:latest Good: FROM python:3.11-slim FROM ubuntu:22.04 The latest tag is unpredictable and can break builds unexpectedly. 2. Minimize Image Size Use Multi-Stage Builds: FROM python:3.11 AS builder COPY . /app WORKDIR /app RUN pip install -r requirements.txt FROM python:3.11-slim COPY --from=builder /app /app WORKDIR /app CMD [\"python\", \"app.py\"] This reduces image size significantly by excluding build dependencies. 3. Security Considerations # Run as non-root user RUN useradd -m appuser USER appuser # Don't run as root # Don't include secrets in images # Scan images for vulnerabilities 4. Optimize Layers Order dockerfile commands from least to most frequently changed Combine RUN commands to reduce layers Leverage build cache effectively Good Practice: FROM python:3.11-slim # Install dependencies first (rarely changes) RUN apt-get update &amp;&amp; apt-get install -y \\ gcc \\ &amp;&amp; rm -rf /var/lib/apt/lists/* # Copy requirements (changes less often) COPY requirements.txt . RUN pip install -r requirements.txt # Copy source code (changes frequently) COPY . . CMD [\"python\", \"app.py\"] 5. Health Checks HEALTHCHECK --interval=30s --timeout=10s --start-period=5s --retries=3 \\ CMD curl -f http://localhost:8000/health || exit 1 6. Resource Limits Always set resource limits in orchestration: resources: limits: memory: \"512Mi\" cpu: \"500m\" requests: memory: \"256Mi\" cpu: \"250m\" Key Takeaways ✅ Use specific, verified base images ✅ Minimize image size with multi-stage builds ✅ Never run as root ✅ Keep secrets out of images ✅ Implement health checks ✅ Set resource limits ✅ Scan for vulnerabilities regularly Pro Tip: Use tools like trivy or grype to scan your Docker images for known vulnerabilities before pushing to production." }, { "title": "API Design Principles You Should Know", "url": "/posts/api-design-principles/", "categories": "development", "tags": "api-design, rest, backend, best-practices", "date": "2026-06-01 09:15:00 +0530", "content": "API Design Principles You Should Know A well-designed API is the backbone of modern applications. Here are principles that lead to maintainable, scalable, and developer-friendly APIs. 1. Be Consistent Naming Convention: Good: /api/v1/users/{id}/posts Bad: /api/v1/user/{user_id}/post_list /api/v1/Users/{UserId}/Post Consistency makes APIs predictable and easier to understand. 2. Use Proper HTTP Methods GET - Retrieve resources (safe &amp; idempotent) POST - Create new resources PUT - Replace entire resource (idempotent) PATCH - Partial update DELETE - Remove resource (idempotent) 3. Status Codes Matter 200 OK - Request successful 201 Created - Resource created 204 No Content - Successful with no response body 400 Bad Request - Client error 401 Unauthorized - Authentication required 403 Forbidden - Permission denied 404 Not Found - Resource doesn't exist 500 Server Error - Server-side problem 4. Version Your API Good API Evolution: /api/v1/... (stable) /api/v2/... (major changes) Avoid deprecating v1 suddenly! 5. Pagination for Large Datasets { \"data\": [...], \"pagination\": { \"page\": 1, \"limit\": 20, \"total\": 150, \"has_more\": true } } 6. Error Responses Should Be Helpful Bad: {\"error\": \"Invalid request\"} Good: { \"error\": { \"code\": \"INVALID_EMAIL\", \"message\": \"Email format is invalid\", \"field\": \"email\", \"suggestion\": \"Please use a valid email address\" } } 7. Document Everything # Example: OpenAPI/Swagger /api/v1/users/{id}: get: summary: Get user by ID parameters: - name: id in: path required: true schema: type: integer responses: 200: description: User found 404: description: User not found 8. Rate Limiting &amp; Throttling Always inform clients: X-RateLimit-Limit: 1000 X-RateLimit-Remaining: 950 X-RateLimit-Reset: 1623456789 9. Security First ✓ Use HTTPS only ✓ Validate &amp; sanitize inputs ✓ Implement authentication/authorization ✓ Never expose sensitive data ✓ Use API keys/tokens securely 10. Make Breaking Changes Carefully ❌ Don't remove fields suddenly ✅ Deprecate first (document for 6+ months) ✅ Support multiple versions during transition ✅ Communicate changes clearly Checklist for Good API Design RESTful principles followed Consistent naming and structure Proper HTTP methods and status codes Clear error messages Comprehensive documentation Versioning strategy in place Rate limiting implemented Security measures applied Pagination for large datasets Backward compatibility considered Remember: Your API is a contract with your users. Breaking that contract damages trust and causes pain for developers using your service." }, { "title": "Getting Started with Kubernetes", "url": "/posts/kubernetes-getting-started/", "categories": "devops, cloud", "tags": "kubernetes, k8s, containerization, orchestration", "date": "2026-05-28 16:45:00 +0530", "content": "Getting Started with Kubernetes Kubernetes (K8s) can seem overwhelming at first, but understanding the basics makes it much more approachable. Let’s break it down. What is Kubernetes? Kubernetes is an open-source orchestration platform for automating deployment, scaling, and management of containerized applications. Think of it as a smart container manager that: Deploys containers across a cluster Handles scaling up/down automatically Restarts failed containers Manages networking and storage Enables rolling updates Core Concepts 1. Pod The smallest deployable unit - usually one container, sometimes multiple. apiVersion: v1 kind: Pod metadata: name: my-app spec: containers: - name: app image: myapp:1.0 ports: - containerPort: 8000 2. Deployment Manages replicas of pods and rolling updates. apiVersion: apps/v1 kind: Deployment metadata: name: my-app spec: replicas: 3 selector: matchLabels: app: my-app template: metadata: labels: app: my-app spec: containers: - name: app image: myapp:1.0 ports: - containerPort: 8000 3. Service Exposes pods internally or externally. apiVersion: v1 kind: Service metadata: name: my-app-service spec: selector: app: my-app type: LoadBalancer ports: - protocol: TCP port: 80 targetPort: 8000 4. ConfigMap &amp; Secrets Manage configuration and sensitive data. apiVersion: v1 kind: ConfigMap metadata: name: app-config data: LOG_LEVEL: \"debug\" DATABASE_HOST: \"db.example.com\" --- apiVersion: v1 kind: Secret metadata: name: db-credentials type: Opaque data: password: ZGJwYXNzd29yZA== # base64 encoded Why Kubernetes? ✅ Auto-scaling - Automatically scale based on load ✅ Self-healing - Restart failed containers ✅ Rolling updates - Zero-downtime deployments ✅ Service discovery - Automatic DNS ✅ Load balancing - Built-in load balancing ✅ Resource management - Efficient resource utilization Getting Started 1. Install kubectl # macOS brew install kubectl # Linux curl -LO \"https://dl.k8s.io/release/$(curl -L -s https://dl.k8s.io/release/stable.txt)/bin/linux/amd64/kubectl\" 2. Set Up a Local Cluster # Docker Desktop (easiest) # Enable Kubernetes in Docker Desktop settings # Or use Minikube brew install minikube minikube start 3. Deploy Your First App kubectl create deployment my-app --image=nginx:latest kubectl expose deployment my-app --port=80 --type=LoadBalancer kubectl get pods kubectl get services Common kubectl Commands # View resources kubectl get pods kubectl get deployments kubectl get services # Describe resources kubectl describe pod &lt;pod-name&gt; # View logs kubectl logs &lt;pod-name&gt; # Port forwarding kubectl port-forward pod/&lt;pod-name&gt; 8000:8000 # Execute command in pod kubectl exec -it &lt;pod-name&gt; -- /bin/sh # Apply configuration kubectl apply -f deployment.yaml # Delete resources kubectl delete pod &lt;pod-name&gt; Next Steps Learn YAML - Kubernetes uses YAML for configuration Understand namespaces - Logical clusters within K8s Explore Helm - Package manager for Kubernetes Study networking - How pods communicate Master volumes - Persistent data storage Resources Kubernetes Official Docs kubectl Cheat Sheet Play with Kubernetes Start Small: Begin with simple deployments locally. Complexity builds naturally as your needs grow." }, { "title": "10 JavaScript Tips Every Developer Should Know", "url": "/posts/javascript-tips/", "categories": "development", "tags": "javascript, tips, frontend, best-practices", "date": "2026-05-25 11:30:00 +0530", "content": "10 JavaScript Tips Every Developer Should Know JavaScript powers modern web development. Here are tips that will make you a better JavaScript developer. 1. Destructuring Assignment // Before const user = { name: 'John', age: 30, email: 'john@example.com' }; const name = user.name; const age = user.age; // After const { name, age, email } = user; // Array destructuring const [first, second, ...rest] = [1, 2, 3, 4, 5]; 2. Template Literals // Bad const greeting = 'Hello, ' + name + '! You are ' + age + ' years old.'; // Good const greeting = `Hello, ${name}! You are ${age} years old.`; // Multi-line const html = ` &lt;div class=\"card\"&gt; &lt;h1&gt;${title}&lt;/h1&gt; &lt;p&gt;${description}&lt;/p&gt; &lt;/div&gt; `; 3. Arrow Functions // Traditional function add(a, b) { return a + b; } // Arrow function const add = (a, b) =&gt; a + b; // Single parameter const square = x =&gt; x * x; // Multiple statements const calculate = (a, b) =&gt; { const sum = a + b; return sum * 2; }; 4. Default Parameters // Before function greet(name) { name = name || 'Guest'; console.log(`Hello, ${name}!`); } // After function greet(name = 'Guest') { console.log(`Hello, ${name}!`); } // Works with functions too const fetchData = (url = 'https://api.example.com', timeout = 5000) =&gt; { // ... }; 5. Spread Operator // Array spreading const arr1 = [1, 2, 3]; const arr2 = [4, 5, 6]; const combined = [...arr1, ...arr2]; // [1, 2, 3, 4, 5, 6] // Object spreading const user = { name: 'John', age: 30 }; const updatedUser = { ...user, age: 31 }; // { name: 'John', age: 31 } // Function arguments const numbers = [1, 2, 3]; Math.max(...numbers); // 3 6. Async/Await // Callback hell (bad) function fetchUser(id, callback) { fetch(`/api/users/${id}`) .then(res =&gt; res.json()) .then(user =&gt; { fetch(`/api/posts?user=${id}`) .then(res =&gt; res.json()) .then(posts =&gt; callback(user, posts)); }); } // Much better async function fetchUserWithPosts(id) { try { const userRes = await fetch(`/api/users/${id}`); const user = await userRes.json(); const postsRes = await fetch(`/api/posts?user=${id}`); const posts = await postsRes.json(); return { user, posts }; } catch (error) { console.error('Error:', error); } } 7. Array Methods // map - transform array const numbers = [1, 2, 3, 4]; const doubled = numbers.map(n =&gt; n * 2); // [2, 4, 6, 8] // filter - select elements const evens = numbers.filter(n =&gt; n % 2 === 0); // [2, 4] // reduce - aggregate const sum = numbers.reduce((acc, n) =&gt; acc + n, 0); // 10 // find - get first match const user = users.find(u =&gt; u.id === 123); // some/every - test condition const hasAdmin = users.some(u =&gt; u.role === 'admin'); const allAdults = users.every(u =&gt; u.age &gt;= 18); 8. Object Methods // Object.keys, values, entries const user = { name: 'John', age: 30 }; Object.keys(user); // ['name', 'age'] Object.values(user); // ['John', 30] Object.entries(user); // [['name', 'John'], ['age', 30]] // Object.assign - merge objects const merged = Object.assign({}, user, { city: 'NYC' }); // Freeze objects Object.freeze(user); // user.age = 31 won't work 9. Optional Chaining // Before const city = user &amp;&amp; user.address &amp;&amp; user.address.city; // After (optional chaining) const city = user?.address?.city; // Also works with functions const result = user?.getEmail?.(); // Arrays const firstItem = arr?.[0]; 10. Nullish Coalescing // Problem with || const value1 = 0 || 'default'; // 'default' (wrong!) // Solution with ?? const value2 = 0 ?? 'default'; // 0 (correct!) // Works with false, '', 0, etc. const name = userInput ?? 'Anonymous'; Bonus: Useful Array Functions // flat - flatten nested arrays const nested = [1, [2, 3], [4, [5, 6]]]; nested.flat(2); // [1, 2, 3, 4, 5, 6] // flatMap - map then flatten const numbers = [1, 2, 3]; numbers.flatMap(n =&gt; [n, n * 2]); // [1, 2, 2, 4, 3, 6] // includes - check if value exists [1, 2, 3].includes(2); // true Practice these tips regularly and you’ll write cleaner, more efficient JavaScript code!" } ]
